Chris Version
…
`summarise()` has regrouped the output.
ℹ Summaries were computed grouped by date, seasons, and holiday.
ℹ Output is grouped by date and seasons.
ℹ Use `summarise(.groups = "drop_last")` to silence this message.
ℹ Use `summarise(.by = c(date, seasons, holiday))` for per-operation grouping
  (`?dplyr::dplyr_by`) instead.

bike_rentals

# A tibble: 353 × 12
# Groups:   date, seasons [353]
   date       seasons holiday    bike_count rainfall snowfall    temp humidity
   <date>     <fct>   <fct>           <int>    <dbl>    <dbl>   <dbl>    <dbl>
 1 2017-12-01 Winter  No Holiday       9539      0        0   -2.45       45.9
 2 2017-12-02 Winter  No Holiday       8523      0        0    1.33       62.0
 3 2017-12-03 Winter  No Holiday       7222      4        0    4.88       81.5
 4 2017-12-04 Winter  No Holiday       8729      0.1      0   -0.304      52.5
 5 2017-12-05 Winter  No Holiday       8307      0        0   -4.46       36.4
 6 2017-12-06 Winter  No Holiday       6669      1.3      8.6  0.0458     70.8
 7 2017-12-07 Winter  No Holiday       8549      0       10.4  1.09       67.5
 8 2017-12-08 Winter  No Holiday       8032      0        0   -3.82       41.8
 9 2017-12-09 Winter  No Holiday       7233      0        0   -0.846      46  
10 2017-12-10 Winter  No Holiday       3453      4.1     32.5  1.19       69.7
# ℹ 343 more rows
# ℹ 4 more variables: wind <dbl>, visibility <dbl>, dew_point <dbl>,
#   solar_rad <dbl>
…
