HW7 Final Version
…
$Holiday
[1] "No Holiday" "Holiday"   

$`Functioning Day`
[1] "Yes" "No" 

Lets change the Date variable from a character string to a date variable

bike_data <- bike_data |>
  mutate(Date = dmy(Date)) # dmy() function from lubridate package

bike_data

# A tibble: 8,760 × 14
   Date       `Rented Bike Count`  Hour `Temperature(°C)` `Humidity(%)`
   <date>                   <dbl> <dbl>             <dbl>         <dbl>
 1 2017-12-01                 254     0              -5.2            37
 2 2017-12-01                 204     1              -5.5            38
 3 2017-12-01                 173     2              -6              39
 4 2017-12-01                 107     3              -6.2            40
 5 2017-12-01                  78     4              -6              36
 6 2017-12-01                 100     5              -6.4            37
 7 2017-12-01                 181     6              -6.6            35
 8 2017-12-01                 460     7              -7.4            38
 9 2017-12-01                 930     8              -7.6            37
10 2017-12-01                 490     9              -6.5            27
# ℹ 8,750 more rows
# ℹ 9 more variables: `Wind speed (m/s)` <dbl>, `Visibility (10m)` <dbl>,
#   `Dew point temperature(°C)` <dbl>, `Solar Radiation (MJ/m2)` <dbl>,
#   `Rainfall(mm)` <dbl>, `Snowfall (cm)` <dbl>, Seasons <chr>, Holiday <chr>,
#   `Functioning Day` <chr>
…
bike_data

# A tibble: 353 × 12
   date       seasons holiday    rented_bike_count rainfall snowfall    temp
   <date>     <fct>   <fct>                  <dbl>    <dbl>    <dbl>   <dbl>
 1 2017-12-01 Winter  No Holiday              9539      0        0   -2.45  
 2 2017-12-02 Winter  No Holiday              8523      0        0    1.33  
 3 2017-12-03 Winter  No Holiday              7222      4        0    4.88  
 4 2017-12-04 Winter  No Holiday              8729      0.1      0   -0.304 
 5 2017-12-05 Winter  No Holiday              8307      0        0   -4.46  
 6 2017-12-06 Winter  No Holiday              6669      1.3      8.6  0.0458
 7 2017-12-07 Winter  No Holiday              8549      0       10.4  1.09  
 8 2017-12-08 Winter  No Holiday              8032      0        0   -3.82  
 9 2017-12-09 Winter  No Holiday              7233      0        0   -0.846 
10 2017-12-10 Winter  No Holiday              3453      4.1     32.5  1.19  
# ℹ 343 more rows
# ℹ 5 more variables: humidity <dbl>, wind_speed <dbl>, visibility <dbl>,
#   dew_point_temp <dbl>, solar_radiation <dbl>
…
# compute the test RMSE
collect_metrics(bike_final_fit)

# A tibble: 2 × 4
  .metric .estimator .estimate .config        
  <chr>   <chr>          <dbl> <chr>          
1 rmse    standard    2961.    pre0_mod0_post0
2 rsq     standard       0.917 pre0_mod0_post0

# extract the coefficient table
bike_final_fit |>
  extract_fit_parsnip() |>
  tidy()

# A tibble: 32 × 5
   term            estimate std.error statistic  p.value
   <chr>              <dbl>     <dbl>     <dbl>    <dbl>
 1 (Intercept)     17076.       2084.   8.19    1.72e-14
 2 rainfall        -4175.        689.  -6.06    5.39e- 9
 3 snowfall            5.10      609.   0.00837 9.93e- 1
 4 temp              647.       4138.   0.156   8.76e- 1
 5 humidity        -2417.       1517.  -1.59    1.13e- 1
 6 wind_speed       -508.        247.  -2.05    4.10e- 2
 7 visibility        126.        306.   0.410   6.82e- 1
 8 dew_point_temp   6575.       4810.   1.37    1.73e- 1
 9 solar_radiation  2951.        357.   8.26    1.12e-14
10 seasons_Spring  -6689.       3705.  -1.81    7.23e- 2
# ℹ 22 more rows
